info face="HGSeikaishotaiPRO" size=40 bold=0 italic=0 charset="" unicode=0 stretchH=100 smooth=1 aa=1 padding=1,1,1,1 spacing=-2,-2
common lineHeight=41 base=35 scaleW=512 scaleH=256 pages=1 packed=0
page id=0 file="japan40.png"
chars count=101
char id=10      x=0    y=0    width=0    height=0    xoffset=0    yoffset=0    xadvance=0    page=0    chnl=0 
char id=32      x=0    y=0    width=0    height=0    xoffset=-1   yoffset=33   xadvance=13   page=0    chnl=0 
char id=33      x=85   y=0    width=6    height=36   xoffset=1    yoffset=1    xadvance=8    page=0    chnl=0 
char id=34      x=382  y=101  width=17   height=12   xoffset=-1   yoffset=1    xadvance=16   page=0    chnl=0 
char id=35      x=188  y=0    width=24   height=35   xoffset=1    yoffset=2    xadvance=26   page=0    chnl=0 
char id=36      x=135  y=0    width=20   height=36   xoffset=1    yoffset=3    xadvance=22   page=0    chnl=0 
char id=37      x=3    y=0    width=35   height=39   xoffset=1    yoffset=0    xadvance=37   page=0    chnl=0 
char id=38      x=387  y=0    width=33   height=31   xoffset=0    yoffset=4    xadvance=33   page=0    chnl=0 
char id=39      x=503  y=71   width=7    height=12   xoffset=0    yoffset=0    xadvance=8    page=0    chnl=0 
char id=40      x=38   y=0    width=12   height=38   xoffset=1    yoffset=1    xadvance=13   page=0    chnl=0 
char id=41      x=50   y=0    width=13   height=38   xoffset=0    yoffset=1    xadvance=13   page=0    chnl=0 
char id=42      x=150  y=101  width=19   height=22   xoffset=1    yoffset=9    xadvance=21   page=0    chnl=0 
char id=43      x=131  y=101  width=19   height=22   xoffset=1    yoffset=8    xadvance=21   page=0    chnl=0 
char id=44      x=399  y=101  width=6    height=11   xoffset=1    yoffset=29   xadvance=8    page=0    chnl=0 
char id=45      x=474  y=101  width=19   height=3    xoffset=0    yoffset=18   xadvance=20   page=0    chnl=0 
char id=46      x=468  y=101  width=6    height=6    xoffset=1    yoffset=29   xadvance=8    page=0    chnl=0 
char id=47      x=115  y=0    width=20   height=36   xoffset=-1   yoffset=2    xadvance=19   page=0    chnl=0 
char id=48      x=341  y=71   width=23   height=30   xoffset=1    yoffset=5    xadvance=24   page=0    chnl=0 
char id=49      x=151  y=71   width=18   height=30   xoffset=3    yoffset=5    xadvance=24   page=0    chnl=0 
char id=50      x=169  y=71   width=22   height=30   xoffset=1    yoffset=5    xadvance=24   page=0    chnl=0 
char id=51      x=191  y=71   width=21   height=30   xoffset=1    yoffset=5    xadvance=24   page=0    chnl=0 
char id=52      x=212  y=71   width=23   height=30   xoffset=0    yoffset=5    xadvance=23   page=0    chnl=0 
char id=53      x=235  y=71   width=21   height=30   xoffset=1    yoffset=5    xadvance=24   page=0    chnl=0 
char id=54      x=256  y=71   width=21   height=30   xoffset=1    yoffset=5    xadvance=24   page=0    chnl=0 
char id=55      x=277  y=71   width=22   height=30   xoffset=1    yoffset=5    xadvance=24   page=0    chnl=0 
char id=56      x=299  y=71   width=21   height=30   xoffset=2    yoffset=5    xadvance=23   page=0    chnl=0 
char id=57      x=320  y=71   width=21   height=30   xoffset=2    yoffset=5    xadvance=24   page=0    chnl=0 
char id=58      x=497  y=71   width=6    height=22   xoffset=1    yoffset=9    xadvance=8    page=0    chnl=0 
char id=59      x=454  y=71   width=6    height=27   xoffset=1    yoffset=9    xadvance=8    page=0    chnl=0 
char id=60      x=364  y=71   width=18   height=30   xoffset=0    yoffset=5    xadvance=18   page=0    chnl=0 
char id=61      x=405  y=101  width=19   height=11   xoffset=1    yoffset=14   xadvance=21   page=0    chnl=0 
char id=62      x=382  y=71   width=18   height=30   xoffset=0    yoffset=5    xadvance=18   page=0    chnl=0 
char id=63      x=166  y=0    width=22   height=35   xoffset=1    yoffset=3    xadvance=23   page=0    chnl=0 
char id=64      x=357  y=0    width=30   height=31   xoffset=1    yoffset=4    xadvance=32   page=0    chnl=0 
char id=65      x=420  y=0    width=34   height=30   xoffset=0    yoffset=5    xadvance=34   page=0    chnl=0 
char id=66      x=454  y=0    width=27   height=30   xoffset=0    yoffset=5    xadvance=27   page=0    chnl=0 
char id=67      x=481  y=0    width=29   height=30   xoffset=1    yoffset=5    xadvance=29   page=0    chnl=0 
char id=68      x=0    y=41   width=31   height=30   xoffset=0    yoffset=5    xadvance=31   page=0    chnl=0 
char id=69      x=31   y=41   width=28   height=30   xoffset=0    yoffset=5    xadvance=28   page=0    chnl=0 
char id=70      x=59   y=41   width=27   height=30   xoffset=0    yoffset=5    xadvance=26   page=0    chnl=0 
char id=71      x=86   y=41   width=31   height=30   xoffset=1    yoffset=5    xadvance=32   page=0    chnl=0 
char id=72      x=117  y=41   width=33   height=30   xoffset=0    yoffset=5    xadvance=33   page=0    chnl=0 
char id=73      x=150  y=41   width=13   height=30   xoffset=0    yoffset=5    xadvance=13   page=0    chnl=0 
char id=74      x=212  y=0    width=18   height=34   xoffset=0    yoffset=5    xadvance=18   page=0    chnl=0 
char id=75      x=163  y=41   width=33   height=30   xoffset=0    yoffset=5    xadvance=33   page=0    chnl=0 
char id=76      x=196  y=41   width=26   height=30   xoffset=0    yoffset=5    xadvance=26   page=0    chnl=0 
char id=77      x=222  y=41   width=37   height=30   xoffset=0    yoffset=5    xadvance=38   page=0    chnl=0 
char id=78      x=259  y=41   width=32   height=30   xoffset=0    yoffset=5    xadvance=32   page=0    chnl=0 
char id=79      x=291  y=41   width=31   height=30   xoffset=1    yoffset=5    xadvance=33   page=0    chnl=0 
char id=80      x=322  y=41   width=26   height=30   xoffset=0    yoffset=5    xadvance=26   page=0    chnl=0 
char id=81      x=230  y=0    width=31   height=34   xoffset=1    yoffset=5    xadvance=32   page=0    chnl=0 
char id=82      x=348  y=41   width=31   height=30   xoffset=0    yoffset=5    xadvance=30   page=0    chnl=0 
char id=83      x=379  y=41   width=25   height=30   xoffset=-1   yoffset=5    xadvance=24   page=0    chnl=0 
char id=84      x=404  y=41   width=31   height=30   xoffset=-1   yoffset=5    xadvance=30   page=0    chnl=0 
char id=85      x=435  y=41   width=33   height=30   xoffset=0    yoffset=5    xadvance=33   page=0    chnl=0 
char id=86      x=468  y=41   width=32   height=30   xoffset=0    yoffset=5    xadvance=32   page=0    chnl=0 
char id=87      x=0    y=71   width=39   height=30   xoffset=0    yoffset=5    xadvance=40   page=0    chnl=0 
char id=88      x=39   y=71   width=31   height=30   xoffset=0    yoffset=5    xadvance=31   page=0    chnl=0 
char id=89      x=70   y=71   width=32   height=30   xoffset=0    yoffset=5    xadvance=32   page=0    chnl=0 
char id=90      x=102  y=71   width=26   height=30   xoffset=-1   yoffset=5    xadvance=24   page=0    chnl=0 
char id=91      x=91   y=0    width=12   height=36   xoffset=1    yoffset=2    xadvance=13   page=0    chnl=0 
char id=92      x=400  y=71   width=32   height=30   xoffset=0    yoffset=5    xadvance=32   page=0    chnl=0 
char id=93      x=103  y=0    width=12   height=36   xoffset=0    yoffset=2    xadvance=13   page=0    chnl=0 
char id=94      x=444  y=101  width=13   height=7    xoffset=0    yoffset=1    xadvance=14   page=0    chnl=0 
char id=95      x=0    y=126  width=22   height=3    xoffset=-1   yoffset=37   xadvance=21   page=0    chnl=0 
char id=96      x=457  y=101  width=11   height=6    xoffset=0    yoffset=1    xadvance=11   page=0    chnl=0 
char id=97      x=187  y=101  width=20   height=20   xoffset=0    yoffset=15   xadvance=20   page=0    chnl=0 
char id=98      x=128  y=71   width=23   height=30   xoffset=-1   yoffset=5    xadvance=22   page=0    chnl=0 
char id=99      x=207  y=101  width=19   height=20   xoffset=0    yoffset=15   xadvance=20   page=0    chnl=0 
char id=100     x=261  y=0    width=22   height=32   xoffset=0    yoffset=3    xadvance=22   page=0    chnl=0 
char id=101     x=226  y=101  width=20   height=20   xoffset=0    yoffset=15   xadvance=20   page=0    chnl=0 
char id=102     x=342  y=0    width=15   height=31   xoffset=0    yoffset=4    xadvance=15   page=0    chnl=0 
char id=103     x=0    y=101  width=21   height=25   xoffset=0    yoffset=15   xadvance=23   page=0    chnl=0 
char id=104     x=283  y=0    width=24   height=32   xoffset=0    yoffset=3    xadvance=24   page=0    chnl=0 
char id=105     x=500  y=41   width=11   height=30   xoffset=0    yoffset=5    xadvance=11   page=0    chnl=0 
char id=106     x=155  y=0    width=11   height=35   xoffset=-1   yoffset=5    xadvance=13   page=0    chnl=0 
char id=107     x=307  y=0    width=23   height=32   xoffset=0    yoffset=3    xadvance=23   page=0    chnl=0 
char id=108     x=330  y=0    width=12   height=32   xoffset=-1   yoffset=3    xadvance=11   page=0    chnl=0 
char id=109     x=45   y=101  width=36   height=22   xoffset=0    yoffset=13   xadvance=35   page=0    chnl=0 
char id=110     x=81   y=101  width=24   height=22   xoffset=0    yoffset=13   xadvance=24   page=0    chnl=0 
char id=111     x=246  y=101  width=21   height=20   xoffset=0    yoffset=15   xadvance=22   page=0    chnl=0 
char id=112     x=432  y=71   width=22   height=27   xoffset=0    yoffset=13   xadvance=23   page=0    chnl=0 
char id=113     x=460  y=71   width=22   height=26   xoffset=0    yoffset=14   xadvance=23   page=0    chnl=0 
char id=114     x=169  y=101  width=18   height=21   xoffset=-1   yoffset=14   xadvance=16   page=0    chnl=0 
char id=115     x=267  y=101  width=17   height=20   xoffset=-1   yoffset=15   xadvance=16   page=0    chnl=0 
char id=116     x=482  y=71   width=15   height=26   xoffset=0    yoffset=9    xadvance=14   page=0    chnl=0 
char id=117     x=105  y=101  width=26   height=22   xoffset=-1   yoffset=13   xadvance=24   page=0    chnl=0 
char id=118     x=284  y=101  width=23   height=20   xoffset=0    yoffset=15   xadvance=23   page=0    chnl=0 
char id=119     x=307  y=101  width=33   height=20   xoffset=0    yoffset=15   xadvance=33   page=0    chnl=0 
char id=120     x=340  y=101  width=23   height=20   xoffset=0    yoffset=15   xadvance=23   page=0    chnl=0 
char id=121     x=21   y=101  width=24   height=25   xoffset=0    yoffset=15   xadvance=24   page=0    chnl=0 
char id=122     x=363  y=101  width=19   height=20   xoffset=-1   yoffset=15   xadvance=18   page=0    chnl=0 
char id=123     x=63   y=0    width=11   height=38   xoffset=0    yoffset=0    xadvance=11   page=0    chnl=0 
char id=124     x=0    y=0    width=3    height=41   xoffset=1    yoffset=-1   xadvance=5    page=0    chnl=0 
char id=125     x=74   y=0    width=11   height=38   xoffset=0    yoffset=0    xadvance=11   page=0    chnl=0 
char id=126     x=424  y=101  width=20   height=9    xoffset=0    yoffset=0    xadvance=20   page=0    chnl=0 
char id=12450   x=91   y=126  width=31   height=31   xoffset=5    yoffset=6    xadvance=40   page=0    chnl=0 
char id=12467   x=151  y=126  width=28   height=23   xoffset=6    yoffset=8    xadvance=40   page=0    chnl=0 
char id=12473   x=122  y=126  width=29   height=28   xoffset=5    yoffset=6    xadvance=40   page=0    chnl=0 
char id=21213   x=22   y=126  width=41   height=40   xoffset=0    yoffset=0    xadvance=40   page=0    chnl=0 
char id=36000   x=63   y=126  width=28   height=41   xoffset=6    yoffset=-1   xadvance=40   page=0    chnl=0 
kernings count=0
