info face="SimSun" size=55 bold=0 italic=0 charset="" unicode=0 stretchH=100 smooth=1 aa=1 padding=1,1,1,1 spacing=-2,-2
common lineHeight=64 base=52 scaleW=512 scaleH=256 pages=1 packed=0
page id=0 file="chinese55.png"
chars count=105
char id=10      x=0    y=0    width=0    height=0    xoffset=0    yoffset=0    xadvance=0    page=0    chnl=0 
char id=32      x=0    y=0    width=0    height=0    xoffset=-1   yoffset=46   xadvance=28   page=0    chnl=0 
char id=33      x=502  y=0    width=8    height=40   xoffset=10   yoffset=7    xadvance=28   page=0    chnl=0 
char id=34      x=376  y=181  width=21   height=16   xoffset=3    yoffset=3    xadvance=28   page=0    chnl=0 
char id=35      x=312  y=143  width=25   height=38   xoffset=1    yoffset=9    xadvance=27   page=0    chnl=0 
char id=36      x=480  y=0    width=22   height=49   xoffset=3    yoffset=4    xadvance=28   page=0    chnl=0 
char id=37      x=372  y=56   width=28   height=40   xoffset=0    yoffset=8    xadvance=28   page=0    chnl=0 
char id=38      x=337  y=143  width=29   height=38   xoffset=0    yoffset=9    xadvance=28   page=0    chnl=0 
char id=39      x=497  y=143  width=11   height=16   xoffset=1    yoffset=3    xadvance=27   page=0    chnl=0 
char id=40      x=345  y=0    width=16   height=51   xoffset=11   yoffset=2    xadvance=28   page=0    chnl=0 
char id=41      x=361  y=0    width=16   height=51   xoffset=1    yoffset=2    xadvance=27   page=0    chnl=0 
char id=42      x=0    y=181  width=25   height=30   xoffset=1    yoffset=12   xadvance=27   page=0    chnl=0 
char id=43      x=25   y=181  width=25   height=28   xoffset=1    yoffset=13   xadvance=27   page=0    chnl=0 
char id=44      x=498  y=56   width=11   height=16   xoffset=1    yoffset=39   xadvance=27   page=0    chnl=0 
char id=45      x=29   y=211  width=26   height=4    xoffset=1    yoffset=25   xadvance=28   page=0    chnl=0 
char id=46      x=480  y=181  width=8    height=8    xoffset=3    yoffset=39   xadvance=27   page=0    chnl=0 
char id=47      x=377  y=0    width=27   height=50   xoffset=0    yoffset=3    xadvance=28   page=0    chnl=0 
char id=48      x=262  y=143  width=24   height=38   xoffset=2    yoffset=9    xadvance=28   page=0    chnl=0 
char id=49      x=400  y=56   width=18   height=39   xoffset=5    yoffset=8    xadvance=28   page=0    chnl=0 
char id=50      x=70   y=143  width=24   height=38   xoffset=1    yoffset=9    xadvance=27   page=0    chnl=0 
char id=51      x=94   y=143  width=23   height=38   xoffset=2    yoffset=9    xadvance=27   page=0    chnl=0 
char id=52      x=117  y=143  width=26   height=38   xoffset=1    yoffset=9    xadvance=28   page=0    chnl=0 
char id=53      x=143  y=143  width=23   height=38   xoffset=2    yoffset=9    xadvance=27   page=0    chnl=0 
char id=54      x=166  y=143  width=24   height=38   xoffset=2    yoffset=9    xadvance=28   page=0    chnl=0 
char id=55      x=190  y=143  width=24   height=38   xoffset=2    yoffset=9    xadvance=28   page=0    chnl=0 
char id=56      x=214  y=143  width=24   height=38   xoffset=1    yoffset=9    xadvance=27   page=0    chnl=0 
char id=57      x=238  y=143  width=24   height=38   xoffset=1    yoffset=9    xadvance=27   page=0    chnl=0 
char id=58      x=489  y=143  width=8    height=28   xoffset=9    yoffset=19   xadvance=27   page=0    chnl=0 
char id=59      x=503  y=105  width=7    height=32   xoffset=10   yoffset=21   xadvance=28   page=0    chnl=0 
char id=60      x=148  y=56   width=23   height=41   xoffset=2    yoffset=7    xadvance=28   page=0    chnl=0 
char id=61      x=397  y=181  width=26   height=15   xoffset=1    yoffset=20   xadvance=28   page=0    chnl=0 
char id=62      x=171  y=56   width=24   height=41   xoffset=2    yoffset=7    xadvance=28   page=0    chnl=0 
char id=63      x=348  y=56   width=24   height=40   xoffset=2    yoffset=7    xadvance=27   page=0    chnl=0 
char id=64      x=286  y=143  width=26   height=38   xoffset=1    yoffset=9    xadvance=27   page=0    chnl=0 
char id=65      x=195  y=56   width=28   height=40   xoffset=0    yoffset=7    xadvance=28   page=0    chnl=0 
char id=66      x=418  y=56   width=27   height=38   xoffset=-1   yoffset=9    xadvance=27   page=0    chnl=0 
char id=67      x=445  y=56   width=26   height=38   xoffset=1    yoffset=9    xadvance=28   page=0    chnl=0 
char id=68      x=471  y=56   width=27   height=38   xoffset=0    yoffset=9    xadvance=28   page=0    chnl=0 
char id=69      x=0    y=105  width=26   height=38   xoffset=0    yoffset=9    xadvance=27   page=0    chnl=0 
char id=70      x=26   y=105  width=27   height=38   xoffset=0    yoffset=9    xadvance=27   page=0    chnl=0 
char id=71      x=53   y=105  width=27   height=38   xoffset=0    yoffset=9    xadvance=27   page=0    chnl=0 
char id=72      x=80   y=105  width=27   height=38   xoffset=0    yoffset=9    xadvance=27   page=0    chnl=0 
char id=73      x=107  y=105  width=19   height=38   xoffset=4    yoffset=9    xadvance=27   page=0    chnl=0 
char id=74      x=75   y=56   width=26   height=46   xoffset=1    yoffset=9    xadvance=27   page=0    chnl=0 
char id=75      x=126  y=105  width=27   height=38   xoffset=0    yoffset=9    xadvance=27   page=0    chnl=0 
char id=76      x=153  y=105  width=26   height=38   xoffset=1    yoffset=9    xadvance=27   page=0    chnl=0 
char id=77      x=179  y=105  width=28   height=38   xoffset=0    yoffset=9    xadvance=28   page=0    chnl=0 
char id=78      x=207  y=105  width=29   height=38   xoffset=0    yoffset=9    xadvance=29   page=0    chnl=0 
char id=79      x=236  y=105  width=26   height=38   xoffset=1    yoffset=9    xadvance=28   page=0    chnl=0 
char id=80      x=262  y=105  width=26   height=38   xoffset=0    yoffset=9    xadvance=27   page=0    chnl=0 
char id=81      x=122  y=56   width=26   height=42   xoffset=1    yoffset=9    xadvance=28   page=0    chnl=0 
char id=82      x=288  y=105  width=27   height=38   xoffset=1    yoffset=9    xadvance=28   page=0    chnl=0 
char id=83      x=315  y=105  width=25   height=38   xoffset=1    yoffset=9    xadvance=28   page=0    chnl=0 
char id=84      x=340  y=105  width=27   height=38   xoffset=0    yoffset=9    xadvance=27   page=0    chnl=0 
char id=85      x=367  y=105  width=27   height=38   xoffset=0    yoffset=9    xadvance=27   page=0    chnl=0 
char id=86      x=394  y=105  width=27   height=38   xoffset=0    yoffset=9    xadvance=28   page=0    chnl=0 
char id=87      x=421  y=105  width=28   height=38   xoffset=0    yoffset=9    xadvance=28   page=0    chnl=0 
char id=88      x=449  y=105  width=27   height=38   xoffset=0    yoffset=9    xadvance=27   page=0    chnl=0 
char id=89      x=476  y=105  width=27   height=38   xoffset=0    yoffset=9    xadvance=28   page=0    chnl=0 
char id=90      x=0    y=143  width=27   height=38   xoffset=0    yoffset=9    xadvance=28   page=0    chnl=0 
char id=91      x=449  y=0    width=15   height=49   xoffset=10   yoffset=3    xadvance=28   page=0    chnl=0 
char id=92      x=52   y=56   width=23   height=47   xoffset=3    yoffset=7    xadvance=28   page=0    chnl=0 
char id=93      x=464  y=0    width=16   height=49   xoffset=2    yoffset=3    xadvance=27   page=0    chnl=0 
char id=94      x=449  y=181  width=17   height=9    xoffset=5    yoffset=2    xadvance=28   page=0    chnl=0 
char id=95      x=0    y=211  width=29   height=5    xoffset=-1   yoffset=51   xadvance=28   page=0    chnl=0 
char id=96      x=466  y=181  width=14   height=8    xoffset=3    yoffset=2    xadvance=28   page=0    chnl=0 
char id=97      x=129  y=181  width=26   height=26   xoffset=1    yoffset=21   xadvance=27   page=0    chnl=0 
char id=98      x=223  y=56   width=26   height=40   xoffset=0    yoffset=7    xadvance=28   page=0    chnl=0 
char id=99      x=155  y=181  width=23   height=26   xoffset=2    yoffset=21   xadvance=27   page=0    chnl=0 
char id=100     x=249  y=56   width=26   height=40   xoffset=2    yoffset=7    xadvance=28   page=0    chnl=0 
char id=101     x=178  y=181  width=23   height=26   xoffset=2    yoffset=21   xadvance=27   page=0    chnl=0 
char id=102     x=27   y=143  width=25   height=38   xoffset=2    yoffset=9    xadvance=28   page=0    chnl=0 
char id=103     x=366  y=143  width=25   height=34   xoffset=2    yoffset=21   xadvance=28   page=0    chnl=0 
char id=104     x=275  y=56   width=27   height=40   xoffset=0    yoffset=7    xadvance=28   page=0    chnl=0 
char id=105     x=52   y=143  width=18   height=38   xoffset=5    yoffset=9    xadvance=28   page=0    chnl=0 
char id=106     x=101  y=56   width=21   height=46   xoffset=3    yoffset=9    xadvance=28   page=0    chnl=0 
char id=107     x=302  y=56   width=27   height=40   xoffset=0    yoffset=7    xadvance=28   page=0    chnl=0 
char id=108     x=329  y=56   width=19   height=40   xoffset=4    yoffset=7    xadvance=27   page=0    chnl=0 
char id=109     x=201  y=181  width=28   height=26   xoffset=0    yoffset=21   xadvance=28   page=0    chnl=0 
char id=110     x=50   y=181  width=26   height=27   xoffset=1    yoffset=20   xadvance=28   page=0    chnl=0 
char id=111     x=229  y=181  width=25   height=26   xoffset=2    yoffset=21   xadvance=28   page=0    chnl=0 
char id=112     x=391  y=143  width=26   height=34   xoffset=0    yoffset=21   xadvance=27   page=0    chnl=0 
char id=113     x=417  y=143  width=25   height=34   xoffset=2    yoffset=21   xadvance=28   page=0    chnl=0 
char id=114     x=76   y=181  width=25   height=27   xoffset=1    yoffset=20   xadvance=27   page=0    chnl=0 
char id=115     x=254  y=181  width=21   height=26   xoffset=3    yoffset=21   xadvance=27   page=0    chnl=0 
char id=116     x=442  y=143  width=22   height=34   xoffset=2    yoffset=13   xadvance=27   page=0    chnl=0 
char id=117     x=101  y=181  width=28   height=27   xoffset=0    yoffset=20   xadvance=28   page=0    chnl=0 
char id=118     x=275  y=181  width=25   height=26   xoffset=1    yoffset=21   xadvance=27   page=0    chnl=0 
char id=119     x=300  y=181  width=29   height=26   xoffset=0    yoffset=21   xadvance=29   page=0    chnl=0 
char id=120     x=329  y=181  width=25   height=26   xoffset=1    yoffset=21   xadvance=27   page=0    chnl=0 
char id=121     x=464  y=143  width=25   height=34   xoffset=1    yoffset=21   xadvance=27   page=0    chnl=0 
char id=122     x=354  y=181  width=22   height=26   xoffset=3    yoffset=21   xadvance=28   page=0    chnl=0 
char id=123     x=213  y=0    width=14   height=52   xoffset=10   yoffset=1    xadvance=27   page=0    chnl=0 
char id=124     x=0    y=0    width=4    height=56   xoffset=11   yoffset=-1   xadvance=27   page=0    chnl=0 
char id=125     x=227  y=0    width=14   height=52   xoffset=3    yoffset=1    xadvance=27   page=0    chnl=0 
char id=126     x=423  y=181  width=26   height=13   xoffset=1    yoffset=-1   xadvance=28   page=0    chnl=0 
char id=127     x=0    y=0    width=0    height=0    xoffset=-1   yoffset=46   xadvance=28   page=0    chnl=0 
char id=20027   x=0    y=56   width=52   height=49   xoffset=1    yoffset=2    xadvance=55   page=0    chnl=0 
char id=21382   x=241  y=0    width=52   height=52   xoffset=1    yoffset=1    xadvance=55   page=0    chnl=0 
char id=21490   x=4    y=0    width=53   height=54   xoffset=2    yoffset=0    xadvance=55   page=0    chnl=0 
char id=22238   x=404  y=0    width=45   height=50   xoffset=6    yoffset=3    xadvance=55   page=0    chnl=0 
char id=32487   x=293  y=0    width=52   height=52   xoffset=2    yoffset=1    xadvance=55   page=0    chnl=0 
char id=32493   x=57   y=0    width=53   height=54   xoffset=1    yoffset=0    xadvance=55   page=0    chnl=0 
char id=39029   x=110  y=0    width=50   height=53   xoffset=2    yoffset=1    xadvance=55   page=0    chnl=0 
char id=39038   x=160  y=0    width=53   height=53   xoffset=1    yoffset=1    xadvance=55   page=0    chnl=0 
kernings count=0
