info face="Dialog.bold" size=100 bold=1 italic=0 charset="" unicode=0 stretchH=100 smooth=1 aa=1 padding=5,5,5,5 spacing=-2,-2
common lineHeight=135 base=101 scaleW=512 scaleH=256 pages=1 packed=0
page id=0 file="Nexa_Bold_Stoke_100.png"
chars count=11
char id=32      x=0    y=0    width=0    height=0    xoffset=3    yoffset=0    xadvance=36   page=0    chnl=0 
char id=48      x=232  y=0    width=58   height=84   xoffset=3    yoffset=23   xadvance=64   page=0    chnl=0 
char id=49      x=290  y=0    width=43   height=83   xoffset=3    yoffset=23   xadvance=64   page=0    chnl=0 
char id=50      x=333  y=0    width=58   height=83   xoffset=3    yoffset=23   xadvance=64   page=0    chnl=0 
char id=51      x=0    y=0    width=58   height=84   xoffset=3    yoffset=23   xadvance=64   page=0    chnl=0 
char id=52      x=0    y=84   width=63   height=82   xoffset=3    yoffset=24   xadvance=64   page=0    chnl=0 
char id=53      x=391  y=0    width=59   height=83   xoffset=3    yoffset=24   xadvance=64   page=0    chnl=0 
char id=54      x=58   y=0    width=58   height=84   xoffset=3    yoffset=23   xadvance=64   page=0    chnl=0 
char id=55      x=450  y=0    width=58   height=82   xoffset=3    yoffset=24   xadvance=64   page=0    chnl=0 
char id=56      x=116  y=0    width=58   height=84   xoffset=3    yoffset=23   xadvance=64   page=0    chnl=0 
char id=57      x=174  y=0    width=58   height=84   xoffset=3    yoffset=23   xadvance=64   page=0    chnl=0 
