info face="Segoe UI Black" size=60 bold=1 italic=0 charset="" unicode=0 stretchH=100 smooth=1 aa=1 padding=2,2,2,2 spacing=-7,-7
common lineHeight=79 base=65 scaleW=512 scaleH=512 pages=3 packed=0
page id=0 file="Segoe_UI_Black_601.png"
page id=1 file="Segoe_UI_Black_602.png"
page id=2 file="Segoe_UI_Black_603.png"
chars count=268
char id=10      x=0    y=0    width=0    height=0    xoffset=0    yoffset=0    xadvance=-3   page=0    chnl=0 
char id=32      x=0    y=0    width=0    height=0    xoffset=-2   yoffset=0    xadvance=17   page=0    chnl=0 
char id=64      x=86   y=458  width=57   height=53   xoffset=0    yoffset=19   xadvance=57   page=0    chnl=0 
char id=81      x=33   y=458  width=53   height=53   xoffset=0    yoffset=19   xadvance=46   page=0    chnl=0 
char id=102     x=480  y=458  width=31   height=50   xoffset=0    yoffset=17   xadvance=26   page=0    chnl=0 
char id=103     x=283  y=458  width=39   height=51   xoffset=0    yoffset=31   xadvance=39   page=0    chnl=0 
char id=106     x=94   y=209  width=25   height=64   xoffset=0    yoffset=18   xadvance=18   page=0    chnl=0 
char id=124     x=141  y=143  width=15   height=65   xoffset=0    yoffset=17   xadvance=24   page=0    chnl=0 
char id=192     x=253  y=397  width=49   height=60   xoffset=0    yoffset=7    xadvance=45   page=0    chnl=0 
char id=193     x=302  y=397  width=49   height=60   xoffset=0    yoffset=7    xadvance=45   page=0    chnl=0 
char id=194     x=400  y=397  width=49   height=60   xoffset=0    yoffset=7    xadvance=45   page=0    chnl=0 
char id=195     x=316  y=274  width=49   height=61   xoffset=0    yoffset=6    xadvance=45   page=0    chnl=0 
char id=199     x=419  y=209  width=39   height=62   xoffset=0    yoffset=19   xadvance=38   page=0    chnl=0 
char id=200     x=476  y=274  width=33   height=60   xoffset=0    yoffset=7    xadvance=33   page=0    chnl=0 
char id=201     x=449  y=397  width=33   height=60   xoffset=0    yoffset=7    xadvance=33   page=0    chnl=0 
char id=204     x=484  y=336  width=24   height=60   xoffset=0    yoffset=7    xadvance=21   page=0    chnl=0 
char id=205     x=482  y=397  width=25   height=60   xoffset=0    yoffset=7    xadvance=21   page=0    chnl=0 
char id=209     x=0    y=336  width=47   height=61   xoffset=0    yoffset=6    xadvance=49   page=0    chnl=0 
char id=210     x=47   y=336  width=48   height=61   xoffset=0    yoffset=7    xadvance=46   page=0    chnl=0 
char id=211     x=95   y=336  width=48   height=61   xoffset=0    yoffset=7    xadvance=46   page=0    chnl=0 
char id=212     x=191  y=336  width=48   height=61   xoffset=0    yoffset=7    xadvance=46   page=0    chnl=0 
char id=213     x=458  y=209  width=48   height=62   xoffset=0    yoffset=6    xadvance=46   page=0    chnl=0 
char id=216     x=235  y=458  width=48   height=52   xoffset=0    yoffset=18   xadvance=46   page=0    chnl=0 
char id=217     x=345  y=336  width=43   height=61   xoffset=0    yoffset=7    xadvance=44   page=0    chnl=0 
char id=218     x=388  y=336  width=43   height=61   xoffset=0    yoffset=7    xadvance=44   page=0    chnl=0 
char id=223     x=402  y=458  width=42   height=51   xoffset=0    yoffset=17   xadvance=42   page=0    chnl=0 
char id=227     x=444  y=458  width=36   height=51   xoffset=0    yoffset=17   xadvance=34   page=0    chnl=0 
char id=240     x=196  y=458  width=39   height=52   xoffset=0    yoffset=16   xadvance=37   page=0    chnl=0 
char id=253     x=226  y=209  width=41   height=64   xoffset=0    yoffset=18   xadvance=34   page=0    chnl=0 
char id=254     x=339  y=209  width=39   height=63   xoffset=0    yoffset=18   xadvance=39   page=0    chnl=0 
char id=255     x=378  y=209  width=41   height=63   xoffset=0    yoffset=19   xadvance=34   page=0    chnl=0 
char id=258     x=365  y=274  width=49   height=61   xoffset=0    yoffset=6    xadvance=45   page=0    chnl=0 
char id=259     x=0    y=518  width=36   height=51   xoffset=0    yoffset=17   xadvance=34   page=0    chnl=0 
char id=296     x=447  y=274  width=29   height=61   xoffset=0    yoffset=6    xadvance=23   page=0    chnl=0 
char id=360     x=53   y=274  width=43   height=62   xoffset=0    yoffset=6    xadvance=44   page=0    chnl=0 
char id=416     x=143  y=458  width=53   height=53   xoffset=0    yoffset=15   xadvance=47   page=0    chnl=0 
char id=609     x=363  y=458  width=39   height=51   xoffset=0    yoffset=31   xadvance=39   page=0    chnl=0 
char id=643     x=53   y=143  width=37   height=65   xoffset=0    yoffset=17   xadvance=22   page=0    chnl=0 
char id=676     x=119  y=209  width=66   height=64   xoffset=0    yoffset=18   xadvance=64   page=0    chnl=0 
char id=679     x=90   y=143  width=51   height=65   xoffset=0    yoffset=17   xadvance=41   page=0    chnl=0 
char id=952     x=322  y=458  width=41   height=51   xoffset=0    yoffset=17   xadvance=38   page=0    chnl=0 
char id=7840    x=351  y=397  width=49   height=60   xoffset=0    yoffset=20   xadvance=45   page=0    chnl=0 
char id=7842    x=156  y=143  width=49   height=65   xoffset=0    yoffset=2    xadvance=45   page=0    chnl=0 
char id=7844    x=257  y=143  width=53   height=65   xoffset=0    yoffset=2    xadvance=45   page=0    chnl=0 
char id=7846    x=205  y=143  width=52   height=65   xoffset=0    yoffset=2    xadvance=45   page=0    chnl=0 
char id=7848    x=89   y=74   width=49   height=68   xoffset=0    yoffset=-1   xadvance=45   page=0    chnl=0 
char id=7850    x=325  y=0    width=49   height=71   xoffset=0    yoffset=-4   xadvance=45   page=0    chnl=0 
char id=7851    x=141  y=397  width=36   height=61   xoffset=0    yoffset=7    xadvance=34   page=0    chnl=0 
char id=7852    x=49   y=0    width=49   height=73   xoffset=0    yoffset=7    xadvance=45   page=0    chnl=0 
char id=7853    x=185  y=274  width=36   height=62   xoffset=0    yoffset=18   xadvance=34   page=0    chnl=0 
char id=7854    x=456  y=0    width=49   height=70   xoffset=0    yoffset=-3   xadvance=45   page=0    chnl=0 
char id=7856    x=407  y=0    width=49   height=70   xoffset=0    yoffset=-3   xadvance=45   page=0    chnl=0 
char id=7858    x=227  y=0    width=49   height=71   xoffset=0    yoffset=-4   xadvance=45   page=0    chnl=0 
char id=7859    x=267  y=209  width=36   height=63   xoffset=0    yoffset=5    xadvance=34   page=0    chnl=0 
char id=7860    x=276  y=0    width=49   height=71   xoffset=0    yoffset=-4   xadvance=45   page=0    chnl=0 
char id=7861    x=149  y=274  width=36   height=62   xoffset=0    yoffset=6    xadvance=34   page=0    chnl=0 
char id=7862    x=0    y=0    width=49   height=74   xoffset=0    yoffset=6    xadvance=45   page=0    chnl=0 
char id=7863    x=303  y=209  width=36   height=63   xoffset=0    yoffset=17   xadvance=34   page=0    chnl=0 
char id=7864    x=0    y=458  width=33   height=60   xoffset=0    yoffset=20   xadvance=33   page=0    chnl=0 
char id=7866    x=310  y=143  width=33   height=65   xoffset=0    yoffset=2    xadvance=33   page=0    chnl=0 
char id=7868    x=414  y=274  width=33   height=61   xoffset=0    yoffset=6    xadvance=33   page=0    chnl=0 
char id=7870    x=394  y=143  width=50   height=65   xoffset=0    yoffset=2    xadvance=33   page=0    chnl=0 
char id=7872    x=343  y=143  width=51   height=65   xoffset=0    yoffset=2    xadvance=33   page=0    chnl=0 
char id=7874    x=138  y=74   width=37   height=68   xoffset=0    yoffset=-1   xadvance=33   page=0    chnl=0 
char id=7876    x=374  y=0    width=33   height=71   xoffset=0    yoffset=-4   xadvance=33   page=0    chnl=0 
char id=7877    x=177  y=397  width=36   height=61   xoffset=0    yoffset=7    xadvance=34   page=0    chnl=0 
char id=7878    x=98   y=0    width=33   height=73   xoffset=0    yoffset=7    xadvance=33   page=0    chnl=0 
char id=7879    x=221  y=274  width=36   height=62   xoffset=0    yoffset=18   xadvance=34   page=0    chnl=0 
char id=7880    x=444  y=143  width=20   height=65   xoffset=0    yoffset=2    xadvance=21   page=0    chnl=0 
char id=7883    x=257  y=274  width=19   height=62   xoffset=0    yoffset=18   xadvance=18   page=0    chnl=0 
char id=7884    x=143  y=336  width=48   height=61   xoffset=0    yoffset=19   xadvance=46   page=0    chnl=0 
char id=7886    x=228  y=74   width=48   height=66   xoffset=0    yoffset=2    xadvance=46   page=0    chnl=0 
char id=7888    x=327  y=74   width=51   height=66   xoffset=0    yoffset=2    xadvance=46   page=0    chnl=0 
char id=7890    x=276  y=74   width=51   height=66   xoffset=0    yoffset=2    xadvance=46   page=0    chnl=0 
char id=7892    x=0    y=74   width=48   height=69   xoffset=0    yoffset=-1   xadvance=46   page=0    chnl=0 
char id=7894    x=179  y=0    width=48   height=72   xoffset=0    yoffset=-4   xadvance=46   page=0    chnl=0 
char id=7895    x=213  y=397  width=40   height=61   xoffset=0    yoffset=7    xadvance=38   page=0    chnl=0 
char id=7896    x=131  y=0    width=48   height=73   xoffset=0    yoffset=7    xadvance=46   page=0    chnl=0 
char id=7897    x=276  y=274  width=40   height=62   xoffset=0    yoffset=18   xadvance=38   page=0    chnl=0 
char id=7898    x=292  y=336  width=53   height=61   xoffset=0    yoffset=7    xadvance=47   page=0    chnl=0 
char id=7900    x=239  y=336  width=53   height=61   xoffset=0    yoffset=7    xadvance=47   page=0    chnl=0 
char id=7902    x=378  y=74   width=53   height=66   xoffset=0    yoffset=2    xadvance=47   page=0    chnl=0 
char id=7904    x=0    y=274  width=53   height=62   xoffset=0    yoffset=6    xadvance=47   page=0    chnl=0 
char id=7906    x=0    y=209  width=53   height=65   xoffset=0    yoffset=15   xadvance=47   page=0    chnl=0 
char id=7910    x=431  y=74   width=43   height=66   xoffset=0    yoffset=2    xadvance=44   page=0    chnl=0 
char id=7912    x=0    y=397  width=53   height=61   xoffset=0    yoffset=7    xadvance=49   page=0    chnl=0 
char id=7914    x=431  y=336  width=53   height=61   xoffset=0    yoffset=7    xadvance=49   page=0    chnl=0 
char id=7916    x=0    y=143  width=53   height=66   xoffset=0    yoffset=2    xadvance=49   page=0    chnl=0 
char id=7918    x=96   y=274  width=53   height=62   xoffset=0    yoffset=6    xadvance=49   page=0    chnl=0 
char id=7920    x=175  y=74   width=53   height=67   xoffset=0    yoffset=13   xadvance=49   page=0    chnl=0 
char id=7922    x=53   y=397  width=44   height=61   xoffset=0    yoffset=6    xadvance=39   page=0    chnl=0 
char id=7923    x=185  y=209  width=41   height=64   xoffset=0    yoffset=18   xadvance=34   page=0    chnl=0 
char id=7926    x=464  y=143  width=44   height=65   xoffset=0    yoffset=2    xadvance=39   page=0    chnl=0 
char id=7927    x=48   y=74   width=41   height=69   xoffset=0    yoffset=13   xadvance=34   page=0    chnl=0 
char id=7928    x=97   y=397  width=44   height=61   xoffset=0    yoffset=6    xadvance=39   page=0    chnl=0 
char id=7929    x=53   y=209  width=41   height=65   xoffset=0    yoffset=17   xadvance=34   page=0    chnl=0 
char id=8747    x=474  y=74   width=34   height=65   xoffset=0    yoffset=17   xadvance=36   page=0    chnl=0 
char id=33      x=482  y=323  width=20   height=48   xoffset=0    yoffset=20   xadvance=22   page=1    chnl=0 
char id=35      x=64   y=467  width=39   height=44   xoffset=0    yoffset=20   xadvance=36   page=1    chnl=0 
char id=36      x=255  y=0    width=34   height=59   xoffset=0    yoffset=14   xadvance=36   page=1    chnl=0 
char id=37      x=69   y=323  width=53   height=49   xoffset=0    yoffset=19   xadvance=54   page=1    chnl=0 
char id=38      x=122  y=323  width=48   height=49   xoffset=0    yoffset=19   xadvance=44   page=1    chnl=0 
char id=40      x=406  y=0    width=25   height=57   xoffset=0    yoffset=20   xadvance=25   page=1    chnl=0 
char id=41      x=431  y=0    width=25   height=57   xoffset=0    yoffset=20   xadvance=25   page=1    chnl=0 
char id=47      x=219  y=117  width=38   height=54   xoffset=0    yoffset=20   xadvance=29   page=1    chnl=0 
char id=48      x=0    y=323  width=38   height=49   xoffset=0    yoffset=19   xadvance=36   page=1    chnl=0 
char id=49      x=421  y=323  width=27   height=48   xoffset=0    yoffset=19   xadvance=29   page=1    chnl=0 
char id=50      x=448  y=323  width=34   height=48   xoffset=0    yoffset=19   xadvance=36   page=1    chnl=0 
char id=51      x=340  y=273  width=33   height=49   xoffset=0    yoffset=19   xadvance=36   page=1    chnl=0 
char id=52      x=417  y=420  width=41   height=47   xoffset=0    yoffset=20   xadvance=37   page=1    chnl=0 
char id=53      x=0    y=372  width=34   height=48   xoffset=0    yoffset=20   xadvance=36   page=1    chnl=0 
char id=54      x=373  y=273  width=37   height=49   xoffset=0    yoffset=19   xadvance=36   page=1    chnl=0 
char id=55      x=472  y=372  width=36   height=47   xoffset=0    yoffset=20   xadvance=36   page=1    chnl=0 
char id=56      x=410  y=273  width=38   height=49   xoffset=0    yoffset=19   xadvance=36   page=1    chnl=0 
char id=57      x=448  y=273  width=38   height=49   xoffset=0    yoffset=19   xadvance=36   page=1    chnl=0 
char id=59      x=189  y=467  width=22   height=42   xoffset=0    yoffset=32   xadvance=19   page=1    chnl=0 
char id=63      x=38   y=323  width=31   height=49   xoffset=0    yoffset=19   xadvance=25   page=1    chnl=0 
char id=65      x=71   y=372  width=49   height=47   xoffset=0    yoffset=20   xadvance=45   page=1    chnl=0 
char id=66      x=120  y=372  width=42   height=47   xoffset=0    yoffset=20   xadvance=41   page=1    chnl=0 
char id=67      x=172  y=273  width=39   height=49   xoffset=0    yoffset=19   xadvance=38   page=1    chnl=0 
char id=68      x=162  y=372  width=45   height=47   xoffset=0    yoffset=20   xadvance=46   page=1    chnl=0 
char id=69      x=207  y=372  width=33   height=47   xoffset=0    yoffset=20   xadvance=33   page=1    chnl=0 
char id=70      x=240  y=372  width=32   height=47   xoffset=0    yoffset=20   xadvance=32   page=1    chnl=0 
char id=71      x=211  y=273  width=45   height=49   xoffset=0    yoffset=19   xadvance=44   page=1    chnl=0 
char id=72      x=272  y=372  width=46   height=47   xoffset=0    yoffset=20   xadvance=48   page=1    chnl=0 
char id=73      x=318  y=372  width=19   height=47   xoffset=0    yoffset=20   xadvance=21   page=1    chnl=0 
char id=74      x=346  y=323  width=32   height=48   xoffset=0    yoffset=20   xadvance=31   page=1    chnl=0 
char id=75      x=337  y=372  width=44   height=47   xoffset=0    yoffset=20   xadvance=41   page=1    chnl=0 
char id=76      x=381  y=372  width=33   height=47   xoffset=0    yoffset=20   xadvance=32   page=1    chnl=0 
char id=77      x=414  y=372  width=58   height=47   xoffset=0    yoffset=20   xadvance=59   page=1    chnl=0 
char id=78      x=0    y=420  width=47   height=47   xoffset=0    yoffset=20   xadvance=49   page=1    chnl=0 
char id=79      x=256  y=273  width=48   height=49   xoffset=0    yoffset=19   xadvance=46   page=1    chnl=0 
char id=80      x=47   y=420  width=40   height=47   xoffset=0    yoffset=20   xadvance=39   page=1    chnl=0 
char id=82      x=87   y=420  width=41   height=47   xoffset=0    yoffset=20   xadvance=41   page=1    chnl=0 
char id=83      x=304  y=273  width=36   height=49   xoffset=0    yoffset=19   xadvance=34   page=1    chnl=0 
char id=84      x=128  y=420  width=43   height=47   xoffset=0    yoffset=20   xadvance=38   page=1    chnl=0 
char id=85      x=378  y=323  width=43   height=48   xoffset=0    yoffset=20   xadvance=44   page=1    chnl=0 
char id=86      x=171  y=420  width=47   height=47   xoffset=0    yoffset=20   xadvance=42   page=1    chnl=0 
char id=87      x=218  y=420  width=67   height=47   xoffset=0    yoffset=20   xadvance=63   page=1    chnl=0 
char id=88      x=285  y=420  width=47   height=47   xoffset=0    yoffset=20   xadvance=42   page=1    chnl=0 
char id=89      x=332  y=420  width=44   height=47   xoffset=0    yoffset=20   xadvance=39   page=1    chnl=0 
char id=90      x=376  y=420  width=41   height=47   xoffset=0    yoffset=20   xadvance=38   page=1    chnl=0 
char id=91      x=456  y=0    width=22   height=57   xoffset=0    yoffset=20   xadvance=25   page=1    chnl=0 
char id=92      x=257  y=117  width=37   height=54   xoffset=0    yoffset=20   xadvance=29   page=1    chnl=0 
char id=93      x=478  y=0    width=22   height=57   xoffset=0    yoffset=20   xadvance=25   page=1    chnl=0 
char id=98      x=45   y=172  width=39   height=50   xoffset=0    yoffset=18   xadvance=39   page=1    chnl=0 
char id=100     x=84   y=172  width=39   height=50   xoffset=0    yoffset=18   xadvance=39   page=1    chnl=0 
char id=101     x=287  y=467  width=36   height=37   xoffset=0    yoffset=31   xadvance=34   page=1    chnl=0 
char id=104     x=135  y=273  width=37   height=49   xoffset=0    yoffset=18   xadvance=37   page=1    chnl=0 
char id=105     x=481  y=223  width=19   height=49   xoffset=0    yoffset=18   xadvance=18   page=1    chnl=0 
char id=107     x=42   y=273  width=38   height=49   xoffset=0    yoffset=18   xadvance=36   page=1    chnl=0 
char id=108     x=80   y=273  width=18   height=49   xoffset=0    yoffset=18   xadvance=18   page=1    chnl=0 
char id=112     x=467  y=117  width=39   height=50   xoffset=0    yoffset=31   xadvance=39   page=1    chnl=0 
char id=113     x=189  y=172  width=39   height=50   xoffset=0    yoffset=31   xadvance=39   page=1    chnl=0 
char id=121     x=228  y=172  width=41   height=50   xoffset=0    yoffset=32   xadvance=34   page=1    chnl=0 
char id=123     x=0    y=60   width=25   height=57   xoffset=0    yoffset=20   xadvance=25   page=1    chnl=0 
char id=125     x=25   y=60   width=24   height=57   xoffset=0    yoffset=20   xadvance=25   page=1    chnl=0 
char id=198     x=0    y=467  width=64   height=47   xoffset=0    yoffset=20   xadvance=59   page=1    chnl=0 
char id=202     x=0    y=0    width=33   height=60   xoffset=0    yoffset=7    xadvance=33   page=1    chnl=0 
char id=221     x=95   y=0    width=44   height=60   xoffset=0    yoffset=7    xadvance=39   page=1    chnl=0 
char id=224     x=269  y=172  width=36   height=50   xoffset=0    yoffset=18   xadvance=34   page=1    chnl=0 
char id=225     x=305  y=172  width=36   height=50   xoffset=0    yoffset=18   xadvance=34   page=1    chnl=0 
char id=226     x=341  y=172  width=36   height=50   xoffset=0    yoffset=18   xadvance=34   page=1    chnl=0 
char id=230     x=0    y=514  width=54   height=37   xoffset=0    yoffset=31   xadvance=50   page=1    chnl=0 
char id=231     x=377  y=172  width=31   height=50   xoffset=0    yoffset=31   xadvance=30   page=1    chnl=0 
char id=232     x=408  y=172  width=36   height=50   xoffset=0    yoffset=18   xadvance=34   page=1    chnl=0 
char id=233     x=444  y=172  width=36   height=50   xoffset=0    yoffset=18   xadvance=34   page=1    chnl=0 
char id=234     x=0    y=223  width=36   height=50   xoffset=0    yoffset=18   xadvance=34   page=1    chnl=0 
char id=236     x=486  y=273  width=25   height=49   xoffset=0    yoffset=18   xadvance=18   page=1    chnl=0 
char id=237     x=242  y=323  width=26   height=49   xoffset=0    yoffset=18   xadvance=18   page=1    chnl=0 
char id=241     x=78   y=223  width=37   height=50   xoffset=0    yoffset=17   xadvance=38   page=1    chnl=0 
char id=242     x=115  y=223  width=40   height=50   xoffset=0    yoffset=18   xadvance=38   page=1    chnl=0 
char id=243     x=155  y=223  width=40   height=50   xoffset=0    yoffset=18   xadvance=38   page=1    chnl=0 
char id=244     x=195  y=223  width=40   height=50   xoffset=0    yoffset=18   xadvance=38   page=1    chnl=0 
char id=245     x=349  y=117  width=40   height=51   xoffset=0    yoffset=17   xadvance=38   page=1    chnl=0 
char id=247     x=252  y=467  width=35   height=39   xoffset=0    yoffset=28   xadvance=43   page=1    chnl=0 
char id=248     x=211  y=467  width=41   height=42   xoffset=0    yoffset=29   xadvance=38   page=1    chnl=0 
char id=249     x=317  y=223  width=37   height=50   xoffset=0    yoffset=18   xadvance=38   page=1    chnl=0 
char id=250     x=354  y=223  width=37   height=50   xoffset=0    yoffset=18   xadvance=38   page=1    chnl=0 
char id=272     x=458  y=420  width=50   height=47   xoffset=0    yoffset=20   xadvance=46   page=1    chnl=0 
char id=273     x=36   y=223  width=42   height=50   xoffset=0    yoffset=18   xadvance=39   page=1    chnl=0 
char id=297     x=480  y=172  width=30   height=50   xoffset=0    yoffset=17   xadvance=18   page=1    chnl=0 
char id=331     x=98   y=273  width=37   height=49   xoffset=0    yoffset=31   xadvance=38   page=1    chnl=0 
char id=361     x=430  y=117  width=37   height=51   xoffset=0    yoffset=17   xadvance=38   page=1    chnl=0 
char id=417     x=103  y=467  width=41   height=44   xoffset=0    yoffset=24   xadvance=38   page=1    chnl=0 
char id=431     x=90   y=60   width=53   height=55   xoffset=0    yoffset=13   xadvance=49   page=1    chnl=0 
char id=432     x=144  y=467  width=45   height=43   xoffset=0    yoffset=25   xadvance=43   page=1    chnl=0 
char id=593     x=463  y=467  width=39   height=37   xoffset=0    yoffset=31   xadvance=39   page=1    chnl=0 
char id=594     x=393  y=467  width=39   height=37   xoffset=0    yoffset=31   xadvance=39   page=1    chnl=0 
char id=596     x=432  y=467  width=31   height=37   xoffset=0    yoffset=31   xadvance=30   page=1    chnl=0 
char id=601     x=323  y=467  width=37   height=37   xoffset=0    yoffset=31   xadvance=34   page=1    chnl=0 
char id=604     x=360  y=467  width=33   height=37   xoffset=0    yoffset=31   xadvance=30   page=1    chnl=0 
char id=658     x=123  y=172  width=35   height=50   xoffset=0    yoffset=32   xadvance=34   page=1    chnl=0 
char id=660     x=158  y=172  width=31   height=50   xoffset=0    yoffset=17   xadvance=29   page=1    chnl=0 
char id=712     x=500  y=0    width=10   height=15   xoffset=0    yoffset=18   xadvance=20   page=1    chnl=0 
char id=716     x=500  y=223  width=10   height=16   xoffset=0    yoffset=65   xadvance=20   page=1    chnl=0 
char id=951     x=308  y=323  width=38   height=48   xoffset=0    yoffset=31   xadvance=38   page=1    chnl=0 
char id=7841    x=170  y=323  width=36   height=49   xoffset=0    yoffset=31   xadvance=34   page=1    chnl=0 
char id=7843    x=143  y=60   width=36   height=55   xoffset=0    yoffset=13   xadvance=34   page=1    chnl=0 
char id=7845    x=229  y=60   width=52   height=55   xoffset=0    yoffset=13   xadvance=34   page=1    chnl=0 
char id=7847    x=179  y=60   width=50   height=55   xoffset=0    yoffset=13   xadvance=34   page=1    chnl=0 
char id=7849    x=289  y=0    width=39   height=58   xoffset=0    yoffset=10   xadvance=34   page=1    chnl=0 
char id=7855    x=219  y=0    width=36   height=60   xoffset=0    yoffset=8    xadvance=34   page=1    chnl=0 
char id=7857    x=183  y=0    width=36   height=60   xoffset=0    yoffset=8    xadvance=34   page=1    chnl=0 
char id=7865    x=206  y=323  width=36   height=49   xoffset=0    yoffset=31   xadvance=34   page=1    chnl=0 
char id=7867    x=281  y=60   width=36   height=55   xoffset=0    yoffset=13   xadvance=34   page=1    chnl=0 
char id=7869    x=313  y=117  width=36   height=51   xoffset=0    yoffset=17   xadvance=34   page=1    chnl=0 
char id=7871    x=368  y=60   width=51   height=55   xoffset=0    yoffset=13   xadvance=34   page=1    chnl=0 
char id=7873    x=317  y=60   width=51   height=55   xoffset=0    yoffset=13   xadvance=34   page=1    chnl=0 
char id=7875    x=328  y=0    width=38   height=58   xoffset=0    yoffset=10   xadvance=34   page=1    chnl=0 
char id=7881    x=294  y=117  width=19   height=54   xoffset=0    yoffset=13   xadvance=18   page=1    chnl=0 
char id=7882    x=33   y=0    width=19   height=60   xoffset=0    yoffset=20   xadvance=21   page=1    chnl=0 
char id=7885    x=268  y=323  width=40   height=49   xoffset=0    yoffset=31   xadvance=38   page=1    chnl=0 
char id=7887    x=419  y=60   width=40   height=55   xoffset=0    yoffset=13   xadvance=38   page=1    chnl=0 
char id=7889    x=0    y=117  width=51   height=55   xoffset=0    yoffset=13   xadvance=38   page=1    chnl=0 
char id=7891    x=459  y=60   width=51   height=55   xoffset=0    yoffset=13   xadvance=38   page=1    chnl=0 
char id=7893    x=366  y=0    width=40   height=58   xoffset=0    yoffset=10   xadvance=38   page=1    chnl=0 
char id=7899    x=276  y=223  width=41   height=50   xoffset=0    yoffset=18   xadvance=38   page=1    chnl=0 
char id=7901    x=235  y=223  width=41   height=50   xoffset=0    yoffset=18   xadvance=38   page=1    chnl=0 
char id=7903    x=51   y=117  width=41   height=55   xoffset=0    yoffset=13   xadvance=38   page=1    chnl=0 
char id=7905    x=389  y=117  width=41   height=51   xoffset=0    yoffset=17   xadvance=38   page=1    chnl=0 
char id=7907    x=49   y=60   width=41   height=56   xoffset=0    yoffset=24   xadvance=38   page=1    chnl=0 
char id=7908    x=52   y=0    width=43   height=60   xoffset=0    yoffset=20   xadvance=44   page=1    chnl=0 
char id=7909    x=34   y=372  width=37   height=48   xoffset=0    yoffset=32   xadvance=38   page=1    chnl=0 
char id=7911    x=92   y=117  width=37   height=55   xoffset=0    yoffset=13   xadvance=38   page=1    chnl=0 
char id=7913    x=436  y=223  width=45   height=50   xoffset=0    yoffset=18   xadvance=43   page=1    chnl=0 
char id=7915    x=391  y=223  width=45   height=50   xoffset=0    yoffset=18   xadvance=43   page=1    chnl=0 
char id=7917    x=129  y=117  width=45   height=55   xoffset=0    yoffset=13   xadvance=43   page=1    chnl=0 
char id=7919    x=0    y=172  width=45   height=51   xoffset=0    yoffset=17   xadvance=43   page=1    chnl=0 
char id=7921    x=174  y=117  width=45   height=55   xoffset=0    yoffset=25   xadvance=43   page=1    chnl=0 
char id=7924    x=139  y=0    width=44   height=60   xoffset=0    yoffset=20   xadvance=39   page=1    chnl=0 
char id=7925    x=0    y=273  width=42   height=50   xoffset=0    yoffset=32   xadvance=34   page=1    chnl=0 
char id=34      x=469  y=47   width=30   height=18   xoffset=0    yoffset=19   xadvance=35   page=2    chnl=0 
char id=39      x=0    y=83   width=15   height=18   xoffset=0    yoffset=19   xadvance=21   page=2    chnl=0 
char id=42      x=383  y=47   width=31   height=29   xoffset=0    yoffset=20   xadvance=29   page=2    chnl=0 
char id=43      x=312  y=47   width=35   height=34   xoffset=0    yoffset=31   xadvance=43   page=2    chnl=0 
char id=44      x=449  y=47   width=20   height=20   xoffset=0    yoffset=54   xadvance=19   page=2    chnl=0 
char id=45      x=95   y=83   width=22   height=13   xoffset=0    yoffset=42   xadvance=24   page=2    chnl=0 
char id=46      x=15   y=83   width=20   height=17   xoffset=0    yoffset=51   xadvance=19   page=2    chnl=0 
char id=58      x=324  y=0    width=20   height=36   xoffset=0    yoffset=32   xadvance=19   page=2    chnl=0 
char id=60      x=255  y=0    width=35   height=37   xoffset=0    yoffset=30   xadvance=43   page=2    chnl=0 
char id=61      x=414  y=47   width=35   height=25   xoffset=0    yoffset=35   xadvance=43   page=2    chnl=0 
char id=62      x=290  y=0    width=34   height=37   xoffset=0    yoffset=30   xadvance=43   page=2    chnl=0 
char id=94      x=347  y=47   width=36   height=30   xoffset=0    yoffset=19   xadvance=43   page=2    chnl=0 
char id=95      x=130  y=83   width=31   height=8    xoffset=0    yoffset=67   xadvance=25   page=2    chnl=0 
char id=96      x=71   y=83   width=24   height=14   xoffset=0    yoffset=18   xadvance=21   page=2    chnl=0 
char id=97      x=104  y=0    width=36   height=37   xoffset=0    yoffset=31   xadvance=34   page=2    chnl=0 
char id=99      x=183  y=0    width=32   height=37   xoffset=0    yoffset=31   xadvance=30   page=2    chnl=0 
char id=109     x=424  y=0    width=57   height=36   xoffset=0    yoffset=31   xadvance=57   page=2    chnl=0 
char id=110     x=0    y=47   width=37   height=36   xoffset=0    yoffset=31   xadvance=38   page=2    chnl=0 
char id=111     x=215  y=0    width=40   height=37   xoffset=0    yoffset=31   xadvance=38   page=2    chnl=0 
char id=114     x=481  y=0    width=28   height=36   xoffset=0    yoffset=31   xadvance=26   page=2    chnl=0 
char id=115     x=140  y=0    width=30   height=37   xoffset=0    yoffset=31   xadvance=29   page=2    chnl=0 
char id=116     x=75   y=0    width=29   height=45   xoffset=0    yoffset=23   xadvance=25   page=2    chnl=0 
char id=117     x=387  y=0    width=37   height=36   xoffset=0    yoffset=32   xadvance=38   page=2    chnl=0 
char id=118     x=141  y=47   width=40   height=35   xoffset=0    yoffset=32   xadvance=35   page=2    chnl=0 
char id=119     x=215  y=47   width=55   height=35   xoffset=0    yoffset=32   xadvance=51   page=2    chnl=0 
char id=120     x=270  y=47   width=42   height=35   xoffset=0    yoffset=32   xadvance=37   page=2    chnl=0 
char id=122     x=181  y=47   width=34   height=35   xoffset=0    yoffset=32   xadvance=31   page=2    chnl=0 
char id=126     x=35   y=83   width=36   height=17   xoffset=0    yoffset=40   xadvance=43   page=2    chnl=0 
char id=215     x=37   y=47   width=36   height=36   xoffset=0    yoffset=30   xadvance=43   page=2    chnl=0 
char id=222     x=0    y=0    width=40   height=47   xoffset=0    yoffset=20   xadvance=39   page=2    chnl=0 
char id=618     x=73   y=47   width=28   height=35   xoffset=0    yoffset=32   xadvance=24   page=2    chnl=0 
char id=650     x=344  y=0    width=43   height=36   xoffset=0    yoffset=32   xadvance=39   page=2    chnl=0 
char id=652     x=101  y=47   width=40   height=35   xoffset=0    yoffset=32   xadvance=35   page=2    chnl=0 
char id=720     x=170  y=0    width=13   height=37   xoffset=0    yoffset=31   xadvance=17   page=2    chnl=0 
char id=721     x=117  y=83   width=13   height=12   xoffset=0    yoffset=42   xadvance=17   page=2    chnl=0 
char id=8599    x=40   y=0    width=35   height=46   xoffset=0    yoffset=21   xadvance=39   page=2    chnl=0 
kernings count=159
kerning first=361 second=34 amount=-1
kerning first=258 second=42 amount=-3
kerning first=253 second=63 amount=-2
kerning first=210 second=65 amount=-1
kerning first=192 second=74 amount=2
kerning first=258 second=79 amount=-1
kerning first=258 second=85 amount=-1
kerning first=195 second=86 amount=-3
kerning first=192 second=87 amount=-2
kerning first=258 second=90 amount=1
kerning first=221 second=97 amount=-5
kerning first=221 second=109 amount=-3
kerning first=221 second=110 amount=-3
kerning first=221 second=112 amount=-3
kerning first=221 second=114 amount=-3
kerning first=244 second=120 amount=-1
kerning first=194 second=86 amount=-3
kerning first=221 second=241 amount=-3
kerning first=221 second=249 amount=-3
kerning first=221 second=194 amount=-4
kerning first=221 second=192 amount=-4
kerning first=213 second=65 amount=-1
kerning first=194 second=87 amount=-2
kerning first=221 second=44 amount=-4
kerning first=221 second=331 amount=-3
kerning first=258 second=360 amount=-1
kerning first=210 second=84 amount=-2
kerning first=195 second=84 amount=-4
kerning first=221 second=46 amount=-5
kerning first=258 second=74 amount=2
kerning first=221 second=227 amount=-4
kerning first=211 second=258 amount=-1
kerning first=221 second=259 amount=-3
kerning first=221 second=103 amount=-4
kerning first=210 second=88 amount=-1
kerning first=221 second=226 amount=-5
kerning first=221 second=115 amount=-3
kerning first=258 second=44 amount=2
kerning first=193 second=74 amount=2
kerning first=221 second=193 amount=-4
kerning first=211 second=90 amount=-1
kerning first=258 second=253 amount=-1
kerning first=221 second=101 amount=-4
kerning first=213 second=258 amount=-1
kerning first=221 second=100 amount=-4
kerning first=221 second=258 amount=-4
kerning first=221 second=232 amount=-4
kerning first=361 second=39 amount=-1
kerning first=221 second=111 amount=-4
kerning first=221 second=224 amount=-5
kerning first=195 second=221 amount=-4
kerning first=194 second=89 amount=-5
kerning first=221 second=273 amount=-4
kerning first=212 second=258 amount=-1
kerning first=195 second=89 amount=-5
kerning first=194 second=221 amount=-4
kerning first=242 second=102 amount=-1
kerning first=192 second=7922 amount=-4
kerning first=221 second=216 amount=-1
kerning first=255 second=103 amount=-1
kerning first=245 second=102 amount=-1
kerning first=221 second=99 amount=-4
kerning first=221 second=361 amount=-3
kerning first=221 second=198 amount=-4
kerning first=221 second=113 amount=-4
kerning first=212 second=65 amount=-1
kerning first=213 second=90 amount=-1
kerning first=193 second=84 amount=-4
kerning first=211 second=88 amount=-1
kerning first=212 second=84 amount=-2
kerning first=192 second=84 amount=-4
kerning first=253 second=46 amount=-3
kerning first=221 second=213 amount=-1
kerning first=221 second=65 amount=-4
kerning first=258 second=86 amount=-3
kerning first=244 second=97 amount=-1
kerning first=221 second=84 amount=1
kerning first=245 second=97 amount=-1
kerning first=221 second=211 amount=-1
kerning first=193 second=86 amount=-3
kerning first=195 second=74 amount=2
kerning first=243 second=120 amount=-1
kerning first=258 second=84 amount=-3
kerning first=194 second=74 amount=2
kerning first=221 second=250 amount=-3
kerning first=221 second=71 amount=-1
kerning first=221 second=233 amount=-4
kerning first=360 second=258 amount=-1
kerning first=221 second=79 amount=-1
kerning first=221 second=212 amount=-1
kerning first=221 second=245 amount=-4
kerning first=258 second=71 amount=-1
kerning first=221 second=230 amount=-5
kerning first=221 second=297 amount=2
kerning first=221 second=195 amount=-4
kerning first=195 second=87 amount=-2
kerning first=221 second=244 amount=-4
kerning first=255 second=111 amount=-1
kerning first=212 second=90 amount=-1
kerning first=192 second=89 amount=-5
kerning first=258 second=121 amount=-1
kerning first=258 second=255 amount=-1
kerning first=243 second=97 amount=-1
kerning first=253 second=39 amount=1
kerning first=193 second=7922 amount=-4
kerning first=221 second=243 amount=-4
kerning first=255 second=113 amount=-1
kerning first=258 second=89 amount=-4
kerning first=258 second=119 amount=-1
kerning first=360 second=65 amount=-1
kerning first=258 second=7923 amount=-1
kerning first=210 second=258 amount=-1
kerning first=253 second=44 amount=-2
kerning first=258 second=118 amount=-1
kerning first=221 second=117 amount=-3
kerning first=221 second=225 amount=-5
kerning first=221 second=210 amount=-1
kerning first=192 second=86 amount=-3
kerning first=213 second=84 amount=-2
kerning first=221 second=242 amount=-4
kerning first=221 second=231 amount=-4
kerning first=243 second=102 amount=-1
kerning first=211 second=84 amount=-2
kerning first=258 second=7922 amount=-4
kerning first=258 second=59 amount=2
kerning first=244 second=102 amount=-1
kerning first=221 second=83 amount=-1
kerning first=193 second=87 amount=-2
kerning first=202 second=74 amount=1
kerning first=221 second=199 amount=-1
kerning first=194 second=7922 amount=-4
kerning first=221 second=67 amount=-1
kerning first=195 second=7922 amount=-4
kerning first=213 second=88 amount=-1
kerning first=242 second=97 amount=-1
kerning first=255 second=101 amount=-1
kerning first=253 second=34 amount=1
kerning first=258 second=87 amount=-2
kerning first=201 second=74 amount=1
kerning first=200 second=74 amount=1
kerning first=192 second=221 amount=-4
kerning first=258 second=67 amount=-1
kerning first=221 second=234 amount=-4
kerning first=193 second=89 amount=-5
kerning first=221 second=102 amount=-1
kerning first=255 second=99 amount=-1
kerning first=255 second=100 amount=-1
kerning first=258 second=221 amount=-4
kerning first=210 second=90 amount=-1
kerning first=245 second=120 amount=-1
kerning first=211 second=65 amount=-1
kerning first=194 second=84 amount=-4
kerning first=360 second=198 amount=-3
kerning first=258 second=116 amount=-1
kerning first=193 second=221 amount=-4
kerning first=221 second=81 amount=-1
kerning first=242 second=120 amount=-1
kerning first=212 second=88 amount=-1
kerning first=221 second=74 amount=-1
